<svg id="AccountOrders" xmlns="http://www.w3.org/2000/svg" width="21.312" height="21.312" viewBox="0 0 21.312 21.312">
  <defs>
    <style>
      .cls-1 {
        fill: #111;
      }

      .cls-2 {
        fill: #00c569;
      }
    </style>
  </defs>
  <g id="Box">
    <path id="Path_740" data-name="Path 740" class="cls-1" d="M20.826,4.838,18.294,1.181A2.749,2.749,0,0,0,16.039,0H5.273A2.749,2.749,0,0,0,3.018,1.181L.486,4.838A2.745,2.745,0,0,0,0,6.394V18.567a2.745,2.745,0,0,0,2.745,2.745H18.567a2.745,2.745,0,0,0,2.745-2.745V6.394a2.745,2.745,0,0,0-.486-1.556ZM16.039,2.131a.61.61,0,0,1,.5.264l1.586,2.293H11.734V2.131ZM4.77,2.4a.61.61,0,0,1,.5-.264H9.59V4.689H3.2ZM19.181,18.567a.61.61,0,0,1-.614.614H2.745a.61.61,0,0,1-.614-.614V7.353a.533.533,0,0,1,.533-.533H18.648a.533.533,0,0,1,.533.533Z"/>
    <rect id="Rectangle_249" data-name="Rectangle 249" class="cls-2" width="9" height="2" rx="1" transform="translate(6 9)"/>
  </g>
</svg>
