<svg xmlns="http://www.w3.org/2000/svg" width="19" height="19" viewBox="0 0 19 19">
  <defs>
    <style>
      .cls-1 {
        fill: #313131;
      }

      .cls-2 {
        fill: #fff;
      }
    </style>
  </defs>
  <g id="CartDelete" transform="translate(-53 -183)">
    <rect id="Rectangle_269" data-name="Rectangle 269" class="cls-1" width="19" height="19" rx="7" transform="translate(53 183)"/>
    <g id="Layer_2" data-name="Layer 2" transform="translate(57.003 187)">
      <g id="Close" transform="translate(-0.003 0)">
        <path id="Path_746" data-name="Path 746" class="cls-2" d="M30.767,30.767a.588.588,0,0,1-.826,0L26.99,27.817l-.413-.413a.584.584,0,1,1,.826-.826l.413.413,2.951,2.951A.588.588,0,0,1,30.767,30.767Z" transform="translate(-20.241 -20.241)"/>
        <path id="Path_747" data-name="Path 747" class="cls-2" d="M10.523.17A.588.588,0,0,0,9.7.17L5.346,4.521.994.17A.584.584,0,0,0,.168,1L4.519,5.348.168,9.7a.584.584,0,1,0,.826.826L10.523,1a.586.586,0,0,0,0-.826Z" transform="translate(0.003 0)"/>
      </g>
    </g>
  </g>
</svg>
