<svg xmlns="http://www.w3.org/2000/svg" width="20" height="20" viewBox="0 0 20 20">
  <defs>
    <style>
      .cls-1 {
        fill: #c9fcdb;
      }

      .cls-2 {
        fill: none;
        stroke: #038f52;
        stroke-linecap: round;
        stroke-width: 2.5px;
      }
    </style>
  </defs>
  <g id="IncreaseQTY" transform="translate(-0.319 -0.756)">
    <rect id="Rectangle_62" data-name="Rectangle 62" class="cls-1" width="20" height="20" rx="7" transform="translate(0.319 0.756)"/>
    <line id="Line_2" data-name="Line 2" class="cls-2" y2="9.845" transform="translate(10.773 6.151)"/>
    <line id="Line_3" data-name="Line 3" class="cls-2" x1="9.845" transform="translate(5.85 11.073)"/>
  </g>
</svg>
