<svg xmlns="http://www.w3.org/2000/svg" width="52" height="52" viewBox="0 0 52 52">
  <defs>
    <style>
      .cls-1 {
        fill: #e3fcff;
      }

      .cls-2 {
        fill: #229aa8;
      }
    </style>
  </defs>
  <g id="ondelivery" transform="translate(-101 -7)">
    <g id="Group_56" data-name="Group 56" transform="translate(101 7)">
      <rect id="Rectangle_11" data-name="Rectangle 11" class="cls-1" width="52" height="52" rx="10"/>
    </g>
    <g id="delivery" transform="translate(110 -56.521)">
      <g id="Group_1128" data-name="Group 1128" transform="translate(21.116 93.327)">
        <g id="Group_1127" data-name="Group 1127">
          <path id="Path_846" data-name="Path 846" class="cls-2" d="M326.381,304.4a4.23,4.23,0,1,0,4.23,4.23,4.23,4.23,0,0,0-4.23-4.23Zm0,6.345a2.115,2.115,0,1,1,2.115-2.115,2.115,2.115,0,0,1-2.115,2.115Z" transform="translate(-322.151 -304.403)"/>
        </g>
      </g>
      <g id="Group_1130" data-name="Group 1130" transform="translate(6.663 93.327)">
        <g id="Group_1129" data-name="Group 1129">
          <path id="Path_847" data-name="Path 847" class="cls-2" d="M105.877,304.4a4.23,4.23,0,1,0,4.23,4.23A4.23,4.23,0,0,0,105.877,304.4Zm0,6.345a2.115,2.115,0,1,1,2.115-2.115,2.115,2.115,0,0,1-2.115,2.115Z" transform="translate(-101.647 -304.403)"/>
        </g>
      </g>
      <g id="Group_1132" data-name="Group 1132" transform="translate(21.68 80.636)">
        <g id="Group_1131" data-name="Group 1131">
          <path id="Path_848" data-name="Path 848" class="cls-2" d="M337.271,111.372a1.058,1.058,0,0,0-.945-.582h-5.57V112.9h4.918l2.88,5.728,1.89-.95Z" transform="translate(-330.756 -110.79)"/>
        </g>
      </g>
      <g id="Group_1134" data-name="Group 1134" transform="translate(14.171 96.535)">
        <g id="Group_1133" data-name="Group 1133">
          <rect id="Rectangle_282" data-name="Rectangle 282" class="cls-2" width="8.002" height="2.115"/>
        </g>
      </g>
      <g id="Group_1136" data-name="Group 1136" transform="translate(2.996 96.535)">
        <g id="Group_1135" data-name="Group 1135">
          <path id="Path_849" data-name="Path 849" class="cls-2" d="M50.439,353.345H46.773a1.058,1.058,0,1,0,0,2.115h3.666a1.058,1.058,0,1,0,0-2.115Z" transform="translate(-45.715 -353.345)"/>
        </g>
      </g>
      <g id="Group_1138" data-name="Group 1138" transform="translate(2.996 78.521)">
        <g id="Group_1137" data-name="Group 1137">
          <path id="Path_850" data-name="Path 850" class="cls-2" d="M76.056,90.069l-2.08-2.679a1.056,1.056,0,0,0-.835-.409H65.456v-7.4a1.057,1.057,0,0,0-1.056-1.06H46.773a1.058,1.058,0,1,0,0,2.115H63.341v7.4A1.057,1.057,0,0,0,64.4,89.1h8.225l1.54,1.984v5.454H71.237a1.058,1.058,0,1,0,0,2.115H75.22A1.058,1.058,0,0,0,76.278,97.6V90.718a1.059,1.059,0,0,0-.222-.649Z" transform="translate(-45.715 -78.521)"/>
        </g>
      </g>
      <g id="Group_1140" data-name="Group 1140" transform="translate(1.727 91.176)">
        <g id="Group_1139" data-name="Group 1139">
          <path id="Path_851" data-name="Path 851" class="cls-2" d="M32.275,271.6H27.411a1.058,1.058,0,0,0,0,2.115h4.865a1.058,1.058,0,0,0,0-2.115Z" transform="translate(-26.353 -271.597)"/>
        </g>
      </g>
      <g id="Group_1142" data-name="Group 1142" transform="translate(0 87.017)">
        <g id="Group_1141" data-name="Group 1141">
          <path id="Path_852" data-name="Path 852" class="cls-2" d="M10.082,208.134H1.058a1.058,1.058,0,0,0,0,2.115h9.024a1.058,1.058,0,0,0,0-2.115Z" transform="translate(0 -208.134)"/>
        </g>
      </g>
      <g id="Group_1144" data-name="Group 1144" transform="translate(1.727 82.857)">
        <g id="Group_1143" data-name="Group 1143">
          <path id="Path_853" data-name="Path 853" class="cls-2" d="M36.435,144.672H27.411a1.058,1.058,0,0,0,0,2.115h9.024a1.058,1.058,0,0,0,0-2.115Z" transform="translate(-26.353 -144.672)"/>
        </g>
      </g>
    </g>
  </g>
</svg>
