{
  "project_info": {
    "project_number": "952286090691",
    "firebase_url": "https://haseed-market-app.firebaseio.com",
    "project_id": "haseed-market-app",
    "storage_bucket": "haseed-market-app.appspot.com"
  },
  "client": [
    {
      "client_info": {
        "mobilesdk_app_id": "1:952286090691:android:d265f59e5ff8ccb61d5976",
        "android_client_info": {
          "package_name": "com.haseed.app"
        }
      },
      "oauth_client": [
        {
          "client_id": "952286090691-knvbq9jquptdal42j9bmd1557gup8u7h.apps.googleusercontent.com",
          "client_type": 3
        }
      ],
      "api_key": [
        {
          "current_key": "AIzaSyBk3rgWgOZNtmB3s2j-VE4yubBIzkmzYsQ"
        }
      ],
      "services": {
        "appinvite_service": {
          "other_platform_oauth_client": [
            {
              "client_id": "952286090691-knvbq9jquptdal42j9bmd1557gup8u7h.apps.googleusercontent.com",
              "client_type": 3
            },
            {
              "client_id": "952286090691-b90f1dso9pnasr8oa38f96jbf446150f.apps.googleusercontent.com",
              "client_type": 2,
              "ios_info": {
                "bundle_id": "com.haseed.app"
              }
            }
          ]
        }
      }
    }
  ],
  "configuration_version": "1"
}